%YAML 1.1
%TAG !u! tag:unity3d.com,2011:
--- !u!114 &11400000
MonoBehaviour:
  m_ObjectHideFlags: 0
  m_PrefabParentObject: {fileID: 0}
  m_PrefabInternal: {fileID: 0}
  m_GameObject: {fileID: 0}
  m_Enabled: 1
  m_EditorHideFlags: 0
  m_Script: {fileID: 11500000, guid: ec3a5f63223c6634c9a28f6c2932867e, type: 3}
  m_Name: Axe
  m_EditorClassIdentifier: 
  Name: Axe
  Icon: {fileID: 21300000, guid: 172774604c1bee84185a69041576525b, type: 3}
  IsCollectable: 1
  Type: 2
  Defense: 0
  Attack: 5
  MaxDurability: 5
