%YAML 1.1
%TAG !u! tag:unity3d.com,2011:
--- !u!114 &11400000
MonoBehaviour:
  m_ObjectHideFlags: 0
  m_PrefabParentObject: {fileID: 0}
  m_PrefabInternal: {fileID: 0}
  m_GameObject: {fileID: 0}
  m_Enabled: 1
  m_EditorHideFlags: 0
  m_Script: {fileID: 11500000, guid: 01c5c7d0b163b494ca0d79ab68f826bb, type: 3}
  m_Name: Potion
  m_EditorClassIdentifier: 
  Name: Potion
  Icon: {fileID: 21300000, guid: e52ea25af699fd445b7046374f81a5b9, type: 3}
  IsCollectable: 1
  IsConsumable: 1
